Chapter 1 Week 1: A Primer on Using Text as Data | PS9594: Computational Text Analysis
…
1.2 Get Data

Mendenhall (1887) argued that “every writer makes use of a vocabulary which is peculiar to himself, and the character of which does not materially change from year to year during his productive [years],” and that one of these characteristics was word length. Mendenhall (1901) takes this further and suggests that, given this assumption, Shakespeare and Bacon were not the same person1.

Let’s get a corpus–a collection of documents–that we can analyze. We can search the Gutenberg repository and create a corpus with selected works.

# Inspect Project Gutenberg metadata to find all texts authored by Oscar Wilde.
# This returns a table of matching Gutenberg entries (including IDs you can use to download texts).
gutenberg_metadata %>%
  filter(author == "Wilde, Oscar")

## # A tibble: 67 × 8
##    gutenberg_id title                 author gutenberg_author_id language
##           <int> <chr>                 <chr>                <int> <fct>   
##  1          174 The Picture of Doria… Wilde…                 111 en      
##  2          301 The Ballad of Readin… Wilde…                 111 en      
##  3          773 Lord Arthur Savile's… Wilde…                 111 en      
##  4          774 Essays and Lectures   Wilde…                 111 en      
##  5          790 Lady Windermere's Fan Wilde…                 111 en      
##  6          844 The Importance of Be… Wilde…                 111 en      
##  7          854 A Woman of No Import… Wilde…                 111 en      
##  8          873 A House of Pomegrana… Wilde…                 111 en      
##  9          875 The Duchess of Padua  Wilde…                 111 en      
## 10          885 An Ideal Husband      Wilde…                 111 en      
## # ℹ 57 more rows
## # ℹ 3 more variables: gutenberg_bookshelf <chr>, rights <fct>,
## #   has_text <lgl>
…
Now, we can change our unit of analysis to the token:

wilde_words <- wilde %>%
  # Tokenize: split the `text` column into one word per row.
  # The output column is named `word`; punctuation is removed and words are lowercased by default.
  unnest_tokens(word, text) %>%
  # Remove underscores (some Gutenberg texts include formatting artifacts like "_" that add noise).
  mutate(word = str_remove_all(word, "\\_"))

## mutate: changed 1,225 values (2%) of 'word' (0 new NAs)

# View the tokenized dataset (one row per token, with title/author carried along).
wilde_words

## # A tibble: 60,477 × 4
##    gutenberg_id title                 author       word     
##           <int> <chr>                 <chr>        <chr>    
##  1          790 Lady Windermere's Fan Wilde, Oscar by       
##  2          790 Lady Windermere's Fan Wilde, Oscar sixteenth
##  3          790 Lady Windermere's Fan Wilde, Oscar edition  
##  4          790 Lady Windermere's Fan Wilde, Oscar first    
##  5          790 Lady Windermere's Fan Wilde, Oscar published
##  6          790 Lady Windermere's Fan Wilde, Oscar 1893     
##  7          790 Lady Windermere's Fan Wilde, Oscar first    
##  8          790 Lady Windermere's Fan Wilde, Oscar issued   
##  9          790 Lady Windermere's Fan Wilde, Oscar by       
## 10          790 Lady Windermere's Fan Wilde, Oscar methuen  
## # ℹ 60,467 more rows
…
